PC3 Lab/Chrysen_final_600_nm.csv

#Digilent WaveForms Oscilloscope Acquisition
#Device Name: Discovery2
#Serial Number: SN:210321B9C353
#Date Time: 2025-05-12 15:27:29.203
#Sample rate: 800Hz
#Samples: 8192
#Channel 1: Range: 5 V/div Offset: 0 V Sample Mode: Average

Time (s),Channel 1 (V)
-5.119200367647059,-3.57400290814291
-5.117950367647059,-3.555620181901441
-5.116700367647058,-3.599738724880968
-5.115450367647059,-3.607091815377555
-5.114200367647059,-3.57400290814291
-5.112950367647058,-3.577679453391204
-5.111700367647058,-3.596062179632673
-5.110450367647059,-3.585032543887792
-5.109200367647059,-3.585032543887792
-5.107950367647058,-3.581355998639498
-5.106700367647059,-3.529884365163384
-5.105450367647059,-3.562973272398029
-5.104200367647059,-3.577679453391204
-5.102950367647058,-3.59238563438438
-5.101700367647059,-3.585032543887792
-5.100450367647059,-3.607091815377555
-5.099200367647058,-3.537237455659971
-5.097950367647059,-3.540914000908265
-5.096700367647059,-3.588709089136086
-5.095450367647059,-3.570326362894616
-5.094200367647058,-3.581355998639498
-5.092950367647059,-3.59238563438438
-5.091700367647059,-3.599738724880968
-5.090450367647058,-3.581355998639498
-5.089200367647059,-3.548267091404853
-5.087950367647059,-3.562973272398029
-5.086700367647059,-3.607091815377555
-5.085450367647058,-3.559296727149734
-5.084200367647059,-3.566649817646323
-5.082950367647059,-3.566649817646323
-5.081700367647058,-3.57400290814291
-5.080450367647058,-3.59238563438438
-5.079200367647059,-3.559296727149734
-5.077950367647059,-3.566649817646323
-5.076700367647058,-3.577679453391204
-5.075450367647059,-3.599738724880968
-5.074200367647059,-3.570326362894616
-5.072950367647059,-3.585032543887792
-5.071700367647058,-3.57400290814291
-5.070450367647059,-3.570326362894616
-5.069200367647059,-3.570326362894616
-5.067950367647058,-3.585032543887792
-5.066700367647059,-3.588709089136086
-5.065450367647059,-3.577679453391204
-5.064200367647059,-3.585032543887792
-5.062950367647058,-3.599738724880968
-5.061700367647059,-3.570326362894616
-5.060450367647059,-3.596062179632673
-5.059200367647058,-3.555620181901441
-5.057950367647059,-3.588709089136086
-5.056700367647059,-3.566649817646323
-5.055450367647059,-3.555620181901441
-5.054200367647058,-3.588709089136086
-5.052950367647059,-3.596062179632673
-5.051700367647059,-3.59238563438438
-5.050450367647058,-3.599738724880968
-5.049200367647058,-3.581355998639498
-5.047950367647059,-3.548267091404853
-5.046700367647059,-3.588709089136086
-5.045450367647058,-3.566649817646323
-5.044200367647059,-3.585032543887792
-5.042950367647059,-3.588709089136086
-5.041700367647059,-3.588709089136086
-5.040450367647058,-3.603415270129262
-5.039200367647059,-3.57400290814291
-5.037950367647059,-3.533560910411677
-5.036700367647058,-3.581355998639498
-5.035450367647059,-3.625474541619025
-5.034200367647059,-3.57400290814291
-5.032950367647059,-3.603415270129262
-5.031700367647058,-3.599738724880968
-5.030450367647059,-3.603415270129262
-5.029200367647059,-3.555620181901441
-5.027950367647058,-3.566649817646323
-5.026700367647059,-3.588709089136086
-5.025450367647059,-3.581355998639498
-5.024200367647059,-3.588709089136086
-5.022950367647058,-3.581355998639498
-5.021700367647059,-3.607091815377555
-5.020450367647059,-3.570326362894616
-5.019200367647058,-3.599738724880968
-5.017950367647058,-3.607091815377555
-5.016700367647059,-3.588709089136086
-5.015450367647059,-3.562973272398029
-5.014200367647058,-3.577679453391204
-5.012950367647059,-3.607091815377555
-5.011700367647059,-3.618121451122437
-5.010450367647059,-3.599738724880968
-5.009200367647058,-3.544590546156559
-5.007950367647059,-3.562973272398029
-5.006700367647059,-3.562973272398029
-5.005450367647058,-3.581355998639498
-5.004200367647059,-3.555620181901441
-5.002950367647059,-3.603415270129262
-5.001700367647059,-3.607091815377555
-5.000450367647058,-3.625474541619025
-4.999200367647059,-3.559296727149734
-4.997950367647059,-3.566649817646323
-4.996700367647058,-3.599738724880968
-4.995450367647059,-3.610768360625849
-4.994200367647059,-3.632827632115613
-4.992950367647059,-3.614444905874143
-4.991700367647058,-3.581355998639498
-4.990450367647059,-3.562973272398029
-4.989200367647059,-3.559296727149734
-4.987950367647058,-3.555620181901441
-4.986700367647058,-3.581355998639498
-4.985450367647059,-3.607091815377555
-4.984200367647059,-3.585032543887792
-4.982950367647058,-3.603415270129262
-4.981700367647059,-3.607091815377555
-4.980450367647059,-3.581355998639498
-4.979200367647059,-3.581355998639498
-4.977950367647058,-3.57400290814291
-4.976700367647059,-3.562973272398029
-4.975450367647059,-3.570326362894616
-4.974200367647058,-3.57400290814291
-4.972950367647059,-3.57400290814291
-4.971700367647059,-3.588709089136086
-4.970450367647059,-3.57400290814291
-4.969200367647058,-3.57400290814291
-4.967950367647059,-3.610768360625849
-4.966700367647059,-3.610768360625849
-4.965450367647058,-3.588709089136086
-4.964200367647059,-3.599738724880968
-4.962950367647059,-3.596062179632673
-4.961700367647059,-3.57400290814291
-4.960450367647058,-3.59238563438438
-4.959200367647059,-3.588709089136086
-4.957950367647059,-3.596062179632673
-4.956700367647058,-3.59238563438438
-4.955450367647058,-3.57400290814291
-4.954200367647059,-3.57400290814291
-4.952950367647059,-3.596062179632673
-4.951700367647058,-3.585032543887792
-4.950450367647059,-3.562973272398029
-4.949200367647059,-3.59238563438438
-4.947950367647059,-3.562973272398029
-4.946700367647058,-3.577679453391204
-4.945450367647059,-3.555620181901441
-4.944200367647059,-3.566649817646323
-4.942950367647058,-3.57400290814291
-4.941700367647059,-3.607091815377555
-4.940450367647059,-3.614444905874143
-4.939200367647059,-3.570326362894616
-4.937950367647058,-3.562973272398029
-4.936700367647059,-3.581355998639498
-4.935450367647059,-3.566649817646323
-4.934200367647058,-3.57400290814291
-4.932950367647059,-3.614444905874143
-4.931700367647059,-3.614444905874143
-4.930450367647059,-3.588709089136086
-4.929200367647058,-3.570326362894616
-4.927950367647059,-3.566649817646323
-4.926700367647059,-3.614444905874143
-4.925450367647058,-3.581355998639498
-4.924200367647058,-3.57400290814291
-4.922950367647059,-3.588709089136086
-4.921700367647059,-3.59238563438438
-4.920450367647058,-3.588709089136086
-4.919200367647059,-3.588709089136086
-4.917950367647059,-3.59238563438438
-4.916700367647059,-3.577679453391204
-4.915450367647058,-3.596062179632673
-4.914200367647059,-3.57400290814291
-4.912950367647059,-3.585032543887792
-4.911700367647058,-3.585032543887792
-4.910450367647059,-3.570326362894616
-4.909200367647059,-3.603415270129262
-4.907950367647059,-3.57400290814291
-4.906700367647058,-3.57400290814291
-4.905450367647059,-3.57400290814291
-4.904200367647059,-3.570326362894616
-4.902950367647058,-3.577679453391204
-4.901700367647059,-3.588709089136086
-4.900450367647059,-3.570326362894616
-4.899200367647059,-3.588709089136086
-4.897950367647058,-3.570326362894616
-4.896700367647059,-3.570326362894616
-4.895450367647059,-3.588709089136086
-4.894200367647058,-3.566649817646323
-4.892950367647058,-3.559296727149734
-4.891700367647059,-3.577679453391204
-4.890450367647059,-3.585032543887792
-4.889200367647058,-3.570326362894616
-4.887950367647059,-3.577679453391204
-4.886700367647059,-3.555620181901441
-4.885450367647059,-3.544590546156559
-4.884200367647058,-3.559296727149734
-4.882950367647059,-3.588709089136086
-4.881700367647059,-3.588709089136086
-4.880450367647058,-3.57400290814291
-4.879200367647059,-3.577679453391204
-4.877950367647059,-3.551943636653147
-4.876700367647059,-3.566649817646323
-4.875450367647058,-3.57400290814291
-4.874200367647059,-3.599738724880968
-4.872950367647059,-3.625474541619025
-4.871700367647058,-3.566649817646323
-4.870450367647059,-3.581355998639498
-4.869200367647059,-3.585032543887792
-4.867950367647059,-3.57400290814291
-4.866700367647058,-3.562973272398029
-4.865450367647059,-3.581355998639498
-4.864200367647059,-3.596062179632673
-4.862950367647058,-3.588709089136086
-4.861700367647058,-3.59238563438438
-4.860450367647059,-3.607091815377555
-4.859200367647059,-3.548267091404853
-4.857950367647058,-3.585032543887792
-4.856700367647059,-3.551943636653147
-4.855450367647059,-3.570326362894616
-4.854200367647059,-3.599738724880968
-4.852950367647058,-3.599738724880968
-4.851700367647059,-3.610768360625849
-4.850450367647059,-3.610768360625849
-4.849200367647058,-3.59238563438438
-4.847950367647059,-3.618121451122437
-4.846700367647059,-3.577679453391204
-4.845450367647059,-3.585032543887792
-4.844200367647058,-3.548267091404853
-4.842950367647059,-3.566649817646323
-4.841700367647059,-3.599738724880968
-4.840450367647058,-3.607091815377555
-4.839200367647059,-3.581355998639498
-4.837950367647059,-3.57400290814291
-4.836700367647059,-3.570326362894616
-4.835450367647058,-3.570326362894616
-4.834200367647059,-3.570326362894616
-4.832950367647059,-3.57400290814291
-4.831700367647058,-3.603415270129262
-4.830450367647058,-3.596062179632673
-4.829200367647059,-3.585032543887792
-4.827950367647059,-3.559296727149734
-4.826700367647058,-3.585032543887792
-4.825450367647059,-3.585032543887792
-4.824200367647059,-3.585032543887792
-4.822950367647059,-3.607091815377555
-4.821700367647058,-3.614444905874143
-4.820450367647059,-3.57400290814291
-4.819200367647059,-3.566649817646323
-4.817950367647058,-3.57400290814291
-4.816700367647059,-3.585032543887792
-4.815450367647059,-3.603415270129262
-4.814200367647059,-3.585032543887792
-4.812950367647058,-3.577679453391204
-4.811700367647059,-3.581355998639498
-4.810450367647059,-3.570326362894616
-4.809200367647058,-3.551943636653147
-4.807950367647059,-3.577679453391204
-4.806700367647059,-3.581355998639498
-4.805450367647059,-3.59238563438438
-4.804200367647058,-3.610768360625849
-4.802950367647059,-3.566649817646323
-4.801700367647059,-3.603415270129262
-4.800450367647058,-3.551943636653147
-4.799200367647058,-3.596062179632673
-4.797950367647059,-3.621797996370731
-4.796700367647059,-3.607091815377555
-4.795450367647058,-3.588709089136086
-4.794200367647059,-3.57400290814291
-4.792950367647059,-3.621797996370731
-4.791700367647059,-3.636504177363907
-4.790450367647058,-3.588709089136086
-4.789200367647059,-3.555620181901441
-4.787950367647059,-3.585032543887792
-4.786700367647058,-3.559296727149734
-4.785450367647059,-3.596062179632673
-4.784200367647059,-3.57400290814291
-4.782950367647059,-3.581355998639498
-4.781700367647058,-3.555620181901441
-4.780450367647059,-3.596062179632673
-4.779200367647059,-3.585032543887792
-4.777950367647058,-3.603415270129262
-4.776700367647059,-3.588709089136086
-4.775450367647059,-3.57400290814291
-4.774200367647059,-3.581355998639498
-4.772950367647058,-3.59238563438438
-4.771700367647059,-3.625474541619025
-4.770450367647059,-3.632827632115613
-4.769200367647058,-3.585032543887792
-4.767950367647058,-3.551943636653147
-4.766700367647059,-3.577679453391204
-4.765450367647059,-3.562973272398029
-4.764200367647058,-3.562973272398029
-4.762950367647059,-3.596062179632673
-4.761700367647059,-3.59238563438438
-4.760450367647059,-3.588709089136086
-4.759200367647058,-3.603415270129262
-4.757950367647059,-3.566649817646323
-4.756700367647059,-3.577679453391204
-4.755450367647058,-3.588709089136086
-4.754200367647059,-3.596062179632673
-4.752950367647059,-3.596062179632673
-4.751700367647059,-3.577679453391204
-4.750450367647058,-3.585032543887792
-4.749200367647059,-3.581355998639498
-4.747950367647059,-3.57400290814291
-4.746700367647058,-3.585032543887792
-4.745450367647059,-3.629151086867319
-4.744200367647059,-3.577679453391204
-4.742950367647059,-3.562973272398029
-4.741700367647058,-3.570326362894616
-4.740450367647059,-3.559296727149734
-4.739200367647059,-3.533560910411677
-4.737950367647058,-3.57400290814291
-4.736700367647058,-3.581355998639498
-4.735450367647059,-3.570326362894616
-4.734200367647059,-3.57400290814291
-4.732950367647058,-3.588709089136086
-4.731700367647059,-3.599738724880968
-4.730450367647059,-3.581355998639498
-4.729200367647059,-3.59238563438438
-4.727950367647058,-3.570326362894616
-4.726700367647059,-3.562973272398029
-4.725450367647059,-3.614444905874143
-4.724200367647058,-3.632827632115613
-4.722950367647059,-3.57400290814291
-4.721700367647059,-3.585032543887792
-4.720450367647059,-3.588709089136086
-4.719200367647058,-3.566649817646323
-4.717950367647059,-3.59238563438438
-4.716700367647059,-3.596062179632673
-4.715450367647058,-3.581355998639498
-4.714200367647059,-3.59238563438438
-4.712950367647059,-3.566649817646323
-4.711700367647059,-3.599738724880968
-4.710450367647058,-3.588709089136086
-4.709200367647059,-3.570326362894616
-4.707950367647059,-3.566649817646323
-4.706700367647058,-3.555620181901441
-4.705450367647058,-3.585032543887792
-4.704200367647059,-3.599738724880968
-4.702950367647059,-3.59238563438438
-4.701700367647058,-3.585032543887792
-4.700450367647059,-3.562973272398029
-4.699200367647059,-3.559296727149734
-4.697950367647059,-3.599738724880968
-4.696700367647058,-3.621797996370731
-4.695450367647059,-3.555620181901441
-4.694200367647059,-3.588709089136086
-4.692950367647058,-3.570326362894616
-4.691700367647059,-3.555620181901441
-4.690450367647059,-3.585032543887792
-4.689200367647059,-3.585032543887792
-4.687950367647058,-3.581355998639498
-4.686700367647059,-3.577679453391204
-4.685450367647059,-3.57400290814291
-4.684200367647058,-3.562973272398029
-4.682950367647059,-3.599738724880968
-4.681700367647059,-3.607091815377555
-4.680450367647059,-3.562973272398029
-4.679200367647058,-3.596062179632673
-4.677950367647059,-3.588709089136086
-4.676700367647059,-3.581355998639498
-4.675450367647058,-3.570326362894616
-4.674200367647058,-3.566649817646323
-4.672950367647059,-3.585032543887792
-4.671700367647059,-3.588709089136086
-4.670450367647058,-3.57400290814291
-4.669200367647059,-3.585032543887792
-4.667950367647059,-3.57400290814291
-4.666700367647059,-3.585032543887792
-4.665450367647058,-3.610768360625849
-4.664200367647059,-3.59238563438438
-4.662950367647059,-3.57400290814291
-4.661700367647058,-3.581355998639498
-4.660450367647059,-3.551943636653147
-4.659200367647059,-3.59238563438438
-4.657950367647059,-3.585032543887792
-4.656700367647058,-3.566649817646323
-4.655450367647059,-3.559296727149734
-4.654200367647059,-3.57400290814291
-4.652950367647058,-3.581355998639498
-4.651700367647059,-3.610768360625849
-4.650450367647059,-3.581355998639498
-4.649200367647059,-3.614444905874143
-4.647950367647058,-3.566649817646323
-4.646700367647059,-3.588709089136086
-4.645450367647059,-3.577679453391204
-4.644200367647058,-3.588709089136086
-4.642950367647058,-3.607091815377555
-4.641700367647059,-3.599738724880968
-4.640450367647059,-3.577679453391204
-4.639200367647058,-3.570326362894616
-4.637950367647059,-3.548267091404853
-4.636700367647059,-3.581355998639498
-4.635450367647059,-3.566649817646323
-4.634200367647058,-3.566649817646323
-4.632950367647059,-3.581355998639498
-4.631700367647059,-3.610768360625849
-4.630450367647058,-3.585032543887792
-4.629200367647059,-3.548267091404853
-4.627950367647059,-3.588709089136086
-4.626700367647059,-3.585032543887792
-4.625450367647058,-3.614444905874143
-4.624200367647059,-3.596062179632673
-4.622950367647059,-3.618121451122437
-4.621700367647058,-3.596062179632673
-4.620450367647059,-3.577679453391204
-4.619200367647059,-3.585032543887792
-4.617950367647059,-3.577679453391204
-4.616700367647058,-3.599738724880968
-4.615450367647059,-3.585032543887792
-4.614200367647059,-3.585032543887792
-4.612950367647058,-3.599738724880968
-4.611700367647058,-3.577679453391204
-4.610450367647059,-3.577679453391204
-4.609200367647059,-3.581355998639498
-4.607950367647058,-3.588709089136086
-4.606700367647059,-3.581355998639498
-4.605450367647059,-3.559296727149734
-4.604200367647059,-3.585032543887792
-4.602950367647058,-3.625474541619025
-4.601700367647059,-3.607091815377555
-4.600450367647059,-3.596062179632673
-4.599200367647058,-3.566649817646323
-4.597950367647059,-3.599738724880968
-4.596700367647059,-3.59238563438438
-4.595450367647059,-3.59238563438438
-4.594200367647058,-3.57400290814291
-4.592950367647059,-3.621797996370731
-4.591700367647059,-3.599738724880968
-4.590450367647058,-3.581355998639498
-4.589200367647059,-3.566649817646323
-4.587950367647059,-3.57400290814291
-4.586700367647059,-3.559296727149734
-4.585450367647058,-3.548267091404853
-4.584200367647059,-3.588709089136086
-4.582950367647059,-3.577679453391204
-4.581700367647058,-3.596062179632673
-4.580450367647058,-3.599738724880968
-4.579200367647059,-3.585032543887792
-4.577950367647059,-3.585032543887792
-4.576700367647058,-3.566649817646323
-4.575450367647059,-3.544590546156559
-4.574200367647059,-3.555620181901441
-4.572950367647059,-3.581355998639498
-4.571700367647058,-3.585032543887792
-4.570450367647059,-3.614444905874143
-4.569200367647059,-3.585032543887792
-4.567950367647058,-3.566649817646323
-4.566700367647059,-3.570326362894616
-4.565450367647059,-3.577679453391204
-4.564200367647059,-3.570326362894616
-4.562950367647058,-3.614444905874143
-4.561700367647059,-3.618121451122437
-4.560450367647059,-3.588709089136086
-4.559200367647058,-3.585032543887792
-4.557950367647059,-3.566649817646323
-4.556700367647059,-3.562973272398029
-4.555450367647059,-3.559296727149734
-4.554200367647058,-3.581355998639498
-4.552950367647059,-3.59238563438438
-4.551700367647059,-3.607091815377555
-4.550450367647058,-3.59238563438438
-4.549200367647058,-3.577679453391204
-4.547950367647059,-3.533560910411677
-4.546700367647059,-3.59238563438438
-4.545450367647058,-3.59238563438438
-4.544200367647059,-3.596062179632673
-4.542950367647059,-3.588709089136086
-4.541700367647059,-3.614444905874143
-4.540450367647058,-3.596062179632673
-4.539200367647059,-3.59238563438438
-4.537950367647059,-3.588709089136086
-4.536700367647058,-3.585032543887792
-4.535450367647059,-3.588709089136086
-4.534200367647059,-3.603415270129262
-4.532950367647059,-3.596062179632673
-4.531700367647058,-3.581355998639498
-4.530450367647059,-3.596062179632673
-4.529200367647059,-3.588709089136086
-4.527950367647058,-3.562973272398029
-4.526700367647059,-3.559296727149734
-4.525450367647059,-3.562973272398029
-4.524200367647059,-3.610768360625849
-4.522950367647058,-3.59238563438438
-4.521700367647059,-3.596062179632673
-4.520450367647059,-3.562973272398029
-4.519200367647058,-3.566649817646323
-4.517950367647058,-3.57400290814291
-4.516700367647059,-3.59238563438438
-4.515450367647059,-3.588709089136086
-4.514200367647058,-3.585032543887792
-4.512950367647059,-3.607091815377555
-4.511700367647059,-3.585032543887792
-4.510450367647059,-3.559296727149734
-4.509200367647058,-3.57400290814291
-4.507950367647059,-3.562973272398029
-4.506700367647059,-3.566649817646323
-4.505450367647058,-3.588709089136086
-4.504200367647059,-3.588709089136086
-4.502950367647059,-3.59238563438438
-4.501700367647059,-3.59238563438438
-4.500450367647058,-3.621797996370731
-4.499200367647059,-3.596062179632673
-4.497950367647059,-3.57400290814291
-4.496700367647058,-3.59238563438438
-4.495450367647059,-3.599738724880968
-4.494200367647059,-3.566649817646323
-4.492950367647059,-3.585032543887792
-4.491700367647058,-3.585032543887792
-4.490450367647059,-3.585032543887792
-4.489200367647059,-3.551943636653147
-4.487950367647058,-3.577679453391204
-4.486700367647058,-3.59238563438438
-4.485450367647059,-3.566649817646323
-4.484200367647059,-3.577679453391204
-4.482950367647058,-3.588709089136086
-4.481700367647059,-3.57400290814291
-4.480450367647059,-3.603415270129262
-4.479200367647059,-3.581355998639498
-4.477950367647058,-3.596062179632673
-4.476700367647059,-3.562973272398029
-4.475450367647059,-3.570326362894616
-4.474200367647058,-3.581355998639498
-4.472950367647059,-3.570326362894616
-4.471700367647059,-3.607091815377555
-4.470450367647059,-3.59238563438438
-4.469200367647058,-3.603415270129262
